{
  "type": "Config",
  "params": {
    "mqtt": {
      "type": "MQTTConfigData",
      "params": {
        "client": {
          "type": "MQTTClientData",
          "params": {
            "device": "TST-001"
          }
        },
        "broker": {
          "type": "BrokerConfigData",
          "params": {
            "host": "localhost",
            "port": 1883
          }
        },
        "topic_template": {
          "type": "TopicTemplate",
          "params": {
            "template": "{message}/{node}/{device}"
          }
        }
      }
    },
    "exhibits": [
      {
        "type": "Exhibit",
        "params": {
          "device": "PC",
          "node": "IN316",
          "components": [
            {
              "type": "StatusModuleLayer",
              "params": {
                "name": "STATUS",
                "enabled_on_start": true,
                "can_shutdown": false
              }
            },
            {
              "type": "HDDSpaceModule",
              "params": {
                "name": "HDD_FREE",
                "path": "C:",
                "period": 60.0
              }
            },
            {
              "type": "CPUTempModule",
              "params": {
                "name": "CPU_TEMP",
                "period": 60.0
              }
            },
            {
              "type": "PrinterStatusModule",
              "params": {
                "name": "PRINTER_STATUS",
                "period": 1.0
              }
            }
          ]
        }
      }
    ]
  }
}